[
  {
    "points": [],
    "lines": [
      [
        [
          [
            0.39919354838709675,
            0.8823529411764708
          ],
          [
            0.7842741935483871,
            0.4136029411764705
          ]
        ],
        [
          [
            0.7842741935483871,
            0.4136029411764705
          ],
          [
            0.3084677419354839,
            0.042892156862745
          ]
        ],
        [
          [
            0.3084677419354839,
            0.042892156862745
          ],
          [
            0.18749999999999997,
            0.27267156862745096
          ]
        ],
        [
          [
            0.18749999999999997,
            0.27267156862745096
          ],
          [
            0.32258064516129037,
            0.34926470588235287
          ]
        ],
        [
          [
            0.32258064516129037,
            0.34926470588235287
          ],
          [
            0.22580645161290322,
            0.3829656862745097
          ]
        ],
        [
          [
            0.22580645161290322,
            0.3829656862745097
          ],
          [
            0.3286290322580645,
            0.44730392156862747
          ]
        ],
        [
          [
            0.3286290322580645,
            0.44730392156862747
          ],
          [
            0.25806451612903225,
            0.5208333333333333
          ]
        ],
        [
          [
            0.25806451612903225,
            0.5208333333333333
          ],
          [
            0.3709677419354839,
            0.5912990196078431
          ]
        ],
        [
          [
            0.3709677419354839,
            0.5912990196078431
          ],
          [
            0.24193548387096772,
            0.6709558823529411
          ]
        ],
        [
          [
            0.24193548387096772,
            0.6709558823529411
          ],
          [
            0.3568548387096775,
            0.7628676470588236
          ]
        ],
        [
          [
            0.3568548387096775,
            0.7628676470588236
          ],
          [
            0.2479838709677419,
            0.8609068627450982
          ]
        ],
        [
          [
            0.2479838709677419,
            0.8609068627450982
          ],
          [
            0.39919354838709675,
            0.8823529411764708
          ]
        ]
      ],
      []
    ]
  }
]