[
  {
    "points": [],
    "lines": [
      [
        [
          [
            0.4576612903225806,
            0.8333333333333335
          ],
          [
            0.13911290322580647,
            0.4534313725490196
          ]
        ],
        [
          [
            0.13911290322580647,
            0.4534313725490196
          ],
          [
            0.4879032258064516,
            0.058210784313725394
          ]
        ],
        [
          [
            0.4879032258064516,
            0.058210784313725394
          ],
          [
            0.6512096774193549,
            0.32169117647058815
          ]
        ],
        [
          [
            0.6512096774193549,
            0.32169117647058815
          ],
          [
            0.5080645161290323,
            0.39828431372549017
          ]
        ],
        [
          [
            0.5080645161290323,
            0.39828431372549017
          ],
          [
            0.6149193548387097,
            0.48713235294117646
          ]
        ],
        [
          [
            0.6149193548387097,
            0.48713235294117646
          ],
          [
            0.5423387096774194,
            0.5667892156862746
          ]
        ],
        [
          [
            0.5423387096774194,
            0.5667892156862746
          ],
          [
            0.6149193548387097,
            0.664828431372549
          ]
        ],
        [
          [
            0.6149193548387097,
            0.664828431372549
          ],
          [
            0.5100806451612904,
            0.7169117647058825
          ]
        ],
        [
          [
            0.5100806451612904,
            0.7169117647058825
          ],
          [
            0.625,
            0.7935049019607845
          ]
        ],
        [
          [
            0.625,
            0.7935049019607845
          ],
          [
            0.4576612903225806,
            0.8333333333333335
          ]
        ]
      ],
      []
    ]
  }
]